TessiaX32/simulation/modelsim/msim_transcript
# Reading C:/intelFPGA_lite/18.1/modelsim_ase/tcl/vsim/pref.tcl
# do TessiaX32_run_msim_rtl_verilog.do
# if {[file exists rtl_work]} {
# 	vdel -lib rtl_work -all
# }
# vlib rtl_work
# vmap work rtl_work
# Model Technology ModelSim - Intel FPGA Edition vmap 10.5b Lib Mapping Utility 2016.10 Oct  5 2016
# vmap work rtl_work 
# Copying C:/intelFPGA_lite/18.1/modelsim_ase/win32aloem/../modelsim.ini to modelsim.ini
# Modifying modelsim.ini
# 
# vlog -sv -work work +incdir+C:/Users/kevii/OneDrive/Escritorio/Arqui\ 2/CE4302-P2-2023-S2/TessiaX32/CPU/Fetch {C:/Users/kevii/OneDrive/Escritorio/Arqui 2/CE4302-P2-2023-S2/TessiaX32/CPU/Fetch/Fetch.sv}
# Model Technology ModelSim - Intel FPGA Edition vlog 10.5b Compiler 2016.10 Oct  5 2016
# Start time: 12:36:36 on Nov 21,2023
# vlog -reportprogress 300 -sv -work work "+incdir+C:/Users/kevii/OneDrive/Escritorio/Arqui 2/CE4302-P2-2023-S2/TessiaX32/CPU/Fetch" C:/Users/kevii/OneDrive/Escritorio/Arqui 2/CE4302-P2-2023-S2/TessiaX32/CPU/Fetch/Fetch.sv 
# -- Compiling module Fetch
# 
# Top level modules:
# 	Fetch
# End time: 12:36:36 on Nov 21,2023, Elapsed time: 0:00:00
# Errors: 0, Warnings: 0
# vlog -sv -work work +incdir+C:/Users/kevii/OneDrive/Escritorio/Arqui\ 2/CE4302-P2-2023-S2/TessiaX32/CPU/Decode {C:/Users/kevii/OneDrive/Escritorio/Arqui 2/CE4302-P2-2023-S2/TessiaX32/CPU/Decode/ControlUnit.sv}
# Model Technology ModelSim - Intel FPGA Edition vlog 10.5b Compiler 2016.10 Oct  5 2016
# Start time: 12:36:36 on Nov 21,2023
# vlog -reportprogress 300 -sv -work work "+incdir+C:/Users/kevii/OneDrive/Escritorio/Arqui 2/CE4302-P2-2023-S2/TessiaX32/CPU/Decode" C:/Users/kevii/OneDrive/Escritorio/Arqui 2/CE4302-P2-2023-S2/TessiaX32/CPU/Decode/ControlUnit.sv 
# -- Compiling module ControlUnit
# 
# Top level modules:
# 	ControlUnit
# End time: 12:36:36 on Nov 21,2023, Elapsed time: 0:00:00
# Errors: 0, Warnings: 0
# vlog -sv -work work +incdir+C:/Users/kevii/OneDrive/Escritorio/Arqui\ 2/CE4302-P2-2023-S2/TessiaX32/CPU/Decode {C:/Users/kevii/OneDrive/Escritorio/Arqui 2/CE4302-P2-2023-S2/TessiaX32/CPU/Decode/ExtendImmediate.sv}
# Model Technology ModelSim - Intel FPGA Edition vlog 10.5b Compiler 2016.10 Oct  5 2016
# Start time: 12:36:36 on Nov 21,2023
# vlog -reportprogress 300 -sv -work work "+incdir+C:/Users/kevii/OneDrive/Escritorio/Arqui 2/CE4302-P2-2023-S2/TessiaX32/CPU/Decode" C:/Users/kevii/OneDrive/Escritorio/Arqui 2/CE4302-P2-2023-S2/TessiaX32/CPU/Decode/ExtendImmediate.sv 
# -- Compiling module ExtendImmediate
# 
# Top level modules:
# 	ExtendImmediate
# End time: 12:36:37 on Nov 21,2023, Elapsed time: 0:00:01
# Errors: 0, Warnings: 0
# vlog -sv -work work +incdir+C:/Users/kevii/OneDrive/Escritorio/Arqui\ 2/CE4302-P2-2023-S2/TessiaX32/CPU/Decode {C:/Users/kevii/OneDrive/Escritorio/Arqui 2/CE4302-P2-2023-S2/TessiaX32/CPU/Decode/RegisterFile.sv}
# Model Technology ModelSim - Intel FPGA Edition vlog 10.5b Compiler 2016.10 Oct  5 2016
# Start time: 12:36:37 on Nov 21,2023
# vlog -reportprogress 300 -sv -work work "+incdir+C:/Users/kevii/OneDrive/Escritorio/Arqui 2/CE4302-P2-2023-S2/TessiaX32/CPU/Decode" C:/Users/kevii/OneDrive/Escritorio/Arqui 2/CE4302-P2-2023-S2/TessiaX32/CPU/Decode/RegisterFile.sv 
# -- Compiling module RegisterFile
# 
# Top level modules:
# 	RegisterFile
# End time: 12:36:37 on Nov 21,2023, Elapsed time: 0:00:00
# Errors: 0, Warnings: 0
# vlog -sv -work work +incdir+C:/Users/kevii/OneDrive/Escritorio/Arqui\ 2/CE4302-P2-2023-S2/TessiaX32/CPU/Decode {C:/Users/kevii/OneDrive/Escritorio/Arqui 2/CE4302-P2-2023-S2/TessiaX32/CPU/Decode/Decode.sv}
# Model Technology ModelSim - Intel FPGA Edition vlog 10.5b Compiler 2016.10 Oct  5 2016
# Start time: 12:36:37 on Nov 21,2023
# vlog -reportprogress 300 -sv -work work "+incdir+C:/Users/kevii/OneDrive/Escritorio/Arqui 2/CE4302-P2-2023-S2/TessiaX32/CPU/Decode" C:/Users/kevii/OneDrive/Escritorio/Arqui 2/CE4302-P2-2023-S2/TessiaX32/CPU/Decode/Decode.sv 
# -- Compiling module Decode
# 
# Top level modules:
# 	Decode
# End time: 12:36:37 on Nov 21,2023, Elapsed time: 0:00:00
# Errors: 0, Warnings: 0
# vlog -sv -work work +incdir+C:/Users/kevii/OneDrive/Escritorio/Arqui\ 2/CE4302-P2-2023-S2/TessiaX32/CPU/Execute {C:/Users/kevii/OneDrive/Escritorio/Arqui 2/CE4302-P2-2023-S2/TessiaX32/CPU/Execute/ALU.sv}
# Model Technology ModelSim - Intel FPGA Edition vlog 10.5b Compiler 2016.10 Oct  5 2016
# Start time: 12:36:37 on Nov 21,2023
# vlog -reportprogress 300 -sv -work work "+incdir+C:/Users/kevii/OneDrive/Escritorio/Arqui 2/CE4302-P2-2023-S2/TessiaX32/CPU/Execute" C:/Users/kevii/OneDrive/Escritorio/Arqui 2/CE4302-P2-2023-S2/TessiaX32/CPU/Execute/ALU.sv 
# -- Compiling module ALU
# 
# Top level modules:
# 	ALU
# End time: 12:36:37 on Nov 21,2023, Elapsed time: 0:00:00
# Errors: 0, Warnings: 0
# vlog -sv -work work +incdir+C:/Users/kevii/OneDrive/Escritorio/Arqui\ 2/CE4302-P2-2023-S2/TessiaX32/CPU/Execute {C:/Users/kevii/OneDrive/Escritorio/Arqui 2/CE4302-P2-2023-S2/TessiaX32/CPU/Execute/ConditionalUnit.sv}
# Model Technology ModelSim - Intel FPGA Edition vlog 10.5b Compiler 2016.10 Oct  5 2016
# Start time: 12:36:37 on Nov 21,2023
# vlog -reportprogress 300 -sv -work work "+incdir+C:/Users/kevii/OneDrive/Escritorio/Arqui 2/CE4302-P2-2023-S2/TessiaX32/CPU/Execute" C:/Users/kevii/OneDrive/Escritorio/Arqui 2/CE4302-P2-2023-S2/TessiaX32/CPU/Execute/ConditionalUnit.sv 
# -- Compiling module ConditionalUnit
# 
# Top level modules:
# 	ConditionalUnit
# End time: 12:36:37 on Nov 21,2023, Elapsed time: 0:00:00
# Errors: 0, Warnings: 0
# vlog -sv -work work +incdir+C:/Users/kevii/OneDrive/Escritorio/Arqui\ 2/CE4302-P2-2023-S2/TessiaX32/CPU/Execute {C:/Users/kevii/OneDrive/Escritorio/Arqui 2/CE4302-P2-2023-S2/TessiaX32/CPU/Execute/ConditionCheck.sv}
# Model Technology ModelSim - Intel FPGA Edition vlog 10.5b Compiler 2016.10 Oct  5 2016
# Start time: 12:36:37 on Nov 21,2023
# vlog -reportprogress 300 -sv -work work "+incdir+C:/Users/kevii/OneDrive/Escritorio/Arqui 2/CE4302-P2-2023-S2/TessiaX32/CPU/Execute" C:/Users/kevii/OneDrive/Escritorio/Arqui 2/CE4302-P2-2023-S2/TessiaX32/CPU/Execute/ConditionCheck.sv 
# -- Compiling module ConditionCheck
# 
# Top level modules:
# 	ConditionCheck
# End time: 12:36:37 on Nov 21,2023, Elapsed time: 0:00:00
# Errors: 0, Warnings: 0
# vlog -sv -work work +incdir+C:/Users/kevii/OneDrive/Escritorio/Arqui\ 2/CE4302-P2-2023-S2/TessiaX32/CPU/Execute {C:/Users/kevii/OneDrive/Escritorio/Arqui 2/CE4302-P2-2023-S2/TessiaX32/CPU/Execute/Execute.sv}
# Model Technology ModelSim - Intel FPGA Edition vlog 10.5b Compiler 2016.10 Oct  5 2016
# Start time: 12:36:37 on Nov 21,2023
# vlog -reportprogress 300 -sv -work work "+incdir+C:/Users/kevii/OneDrive/Escritorio/Arqui 2/CE4302-P2-2023-S2/TessiaX32/CPU/Execute" C:/Users/kevii/OneDrive/Escritorio/Arqui 2/CE4302-P2-2023-S2/TessiaX32/CPU/Execute/Execute.sv 
# -- Compiling module Execute
# 
# Top level modules:
# 	Execute
# End time: 12:36:37 on Nov 21,2023, Elapsed time: 0:00:00
# Errors: 0, Warnings: 0
# vlog -sv -work work +incdir+C:/Users/kevii/OneDrive/Escritorio/Arqui\ 2/CE4302-P2-2023-S2/TessiaX32/CPU/Memory {C:/Users/kevii/OneDrive/Escritorio/Arqui 2/CE4302-P2-2023-S2/TessiaX32/CPU/Memory/InstructionMemory.sv}
# Model Technology ModelSim - Intel FPGA Edition vlog 10.5b Compiler 2016.10 Oct  5 2016
# Start time: 12:36:37 on Nov 21,2023
# vlog -reportprogress 300 -sv -work work "+incdir+C:/Users/kevii/OneDrive/Escritorio/Arqui 2/CE4302-P2-2023-S2/TessiaX32/CPU/Memory" C:/Users/kevii/OneDrive/Escritorio/Arqui 2/CE4302-P2-2023-S2/TessiaX32/CPU/Memory/InstructionMemory.sv 
# -- Compiling module InstructionMemory
# 
# Top level modules:
# 	InstructionMemory
# End time: 12:36:37 on Nov 21,2023, Elapsed time: 0:00:00
# Errors: 0, Warnings: 0
# vlog -sv -work work +incdir+C:/Users/kevii/OneDrive/Escritorio/Arqui\ 2/CE4302-P2-2023-S2/TessiaX32/CPU/WriteBack {C:/Users/kevii/OneDrive/Escritorio/Arqui 2/CE4302-P2-2023-S2/TessiaX32/CPU/WriteBack/WriteBack.sv}
# Model Technology ModelSim - Intel FPGA Edition vlog 10.5b Compiler 2016.10 Oct  5 2016
# Start time: 12:36:37 on Nov 21,2023
# vlog -reportprogress 300 -sv -work work "+incdir+C:/Users/kevii/OneDrive/Escritorio/Arqui 2/CE4302-P2-2023-S2/TessiaX32/CPU/WriteBack" C:/Users/kevii/OneDrive/Escritorio/Arqui 2/CE4302-P2-2023-S2/TessiaX32/CPU/WriteBack/WriteBack.sv 
# -- Compiling module WriteBack
# 
# Top level modules:
# 	WriteBack
# End time: 12:36:38 on Nov 21,2023, Elapsed time: 0:00:01
# Errors: 0, Warnings: 0
# vlog -sv -work work +incdir+C:/Users/kevii/OneDrive/Escritorio/Arqui\ 2/CE4302-P2-2023-S2/TessiaX32/CPU/utils {C:/Users/kevii/OneDrive/Escritorio/Arqui 2/CE4302-P2-2023-S2/TessiaX32/CPU/utils/adder.sv}
# Model Technology ModelSim - Intel FPGA Edition vlog 10.5b Compiler 2016.10 Oct  5 2016
# Start time: 12:36:38 on Nov 21,2023
# vlog -reportprogress 300 -sv -work work "+incdir+C:/Users/kevii/OneDrive/Escritorio/Arqui 2/CE4302-P2-2023-S2/TessiaX32/CPU/utils" C:/Users/kevii/OneDrive/Escritorio/Arqui 2/CE4302-P2-2023-S2/TessiaX32/CPU/utils/adder.sv 
# -- Compiling module adder
# 
# Top level modules:
# 	adder
# End time: 12:36:38 on Nov 21,2023, Elapsed time: 0:00:00
# Errors: 0, Warnings: 0
# vlog -sv -work work +incdir+C:/Users/kevii/OneDrive/Escritorio/Arqui\ 2/CE4302-P2-2023-S2/TessiaX32/CPU/utils {C:/Users/kevii/OneDrive/Escritorio/Arqui 2/CE4302-P2-2023-S2/TessiaX32/CPU/utils/flopenrc.sv}
# Model Technology ModelSim - Intel FPGA Edition vlog 10.5b Compiler 2016.10 Oct  5 2016
# Start time: 12:36:38 on Nov 21,2023
# vlog -reportprogress 300 -sv -work work "+incdir+C:/Users/kevii/OneDrive/Escritorio/Arqui 2/CE4302-P2-2023-S2/TessiaX32/CPU/utils" C:/Users/kevii/OneDrive/Escritorio/Arqui 2/CE4302-P2-2023-S2/TessiaX32/CPU/utils/flopenrc.sv 
# -- Compiling module flopenrc
# 
# Top level modules:
# 	flopenrc
# End time: 12:36:38 on Nov 21,2023, Elapsed time: 0:00:00
# Errors: 0, Warnings: 0
# vlog -sv -work work +incdir+C:/Users/kevii/OneDrive/Escritorio/Arqui\ 2/CE4302-P2-2023-S2/TessiaX32/CPU/utils {C:/Users/kevii/OneDrive/Escritorio/Arqui 2/CE4302-P2-2023-S2/TessiaX32/CPU/utils/mux2to1.sv}
# Model Technology ModelSim - Intel FPGA Edition vlog 10.5b Compiler 2016.10 Oct  5 2016
# Start time: 12:36:38 on Nov 21,2023
# vlog -reportprogress 300 -sv -work work "+incdir+C:/Users/kevii/OneDrive/Escritorio/Arqui 2/CE4302-P2-2023-S2/TessiaX32/CPU/utils" C:/Users/kevii/OneDrive/Escritorio/Arqui 2/CE4302-P2-2023-S2/TessiaX32/CPU/utils/mux2to1.sv 
# -- Compiling module mux2to1
# 
# Top level modules:
# 	mux2to1
# End time: 12:36:38 on Nov 21,2023, Elapsed time: 0:00:00
# Errors: 0, Warnings: 0
# vlog -sv -work work +incdir+C:/Users/kevii/OneDrive/Escritorio/Arqui\ 2/CE4302-P2-2023-S2/TessiaX32/CPU/utils {C:/Users/kevii/OneDrive/Escritorio/Arqui 2/CE4302-P2-2023-S2/TessiaX32/CPU/utils/mux3to1.sv}
# Model Technology ModelSim - Intel FPGA Edition vlog 10.5b Compiler 2016.10 Oct  5 2016
# Start time: 12:36:38 on Nov 21,2023
# vlog -reportprogress 300 -sv -work work "+incdir+C:/Users/kevii/OneDrive/Escritorio/Arqui 2/CE4302-P2-2023-S2/TessiaX32/CPU/utils" C:/Users/kevii/OneDrive/Escritorio/Arqui 2/CE4302-P2-2023-S2/TessiaX32/CPU/utils/mux3to1.sv 
# -- Compiling module mux3to1
# 
# Top level modules:
# 	mux3to1
# End time: 12:36:38 on Nov 21,2023, Elapsed time: 0:00:00
# Errors: 0, Warnings: 0
# vlog -sv -work work +incdir+C:/Users/kevii/OneDrive/Escritorio/Arqui\ 2/CE4302-P2-2023-S2/TessiaX32/CPU {C:/Users/kevii/OneDrive/Escritorio/Arqui 2/CE4302-P2-2023-S2/TessiaX32/CPU/TessiaX32.sv}
# Model Technology ModelSim - Intel FPGA Edition vlog 10.5b Compiler 2016.10 Oct  5 2016
# Start time: 12:36:38 on Nov 21,2023
# vlog -reportprogress 300 -sv -work work "+incdir+C:/Users/kevii/OneDrive/Escritorio/Arqui 2/CE4302-P2-2023-S2/TessiaX32/CPU" C:/Users/kevii/OneDrive/Escritorio/Arqui 2/CE4302-P2-2023-S2/TessiaX32/CPU/TessiaX32.sv 
# -- Compiling module TessiaX32
# 
# Top level modules:
# 	TessiaX32
# End time: 12:36:38 on Nov 21,2023, Elapsed time: 0:00:00
# Errors: 0, Warnings: 0
# vlog -sv -work work +incdir+C:/Users/kevii/OneDrive/Escritorio/Arqui\ 2/CE4302-P2-2023-S2/TessiaX32/CPU/Hazards {C:/Users/kevii/OneDrive/Escritorio/Arqui 2/CE4302-P2-2023-S2/TessiaX32/CPU/Hazards/HazardUnit.sv}
# Model Technology ModelSim - Intel FPGA Edition vlog 10.5b Compiler 2016.10 Oct  5 2016
# Start time: 12:36:38 on Nov 21,2023
# vlog -reportprogress 300 -sv -work work "+incdir+C:/Users/kevii/OneDrive/Escritorio/Arqui 2/CE4302-P2-2023-S2/TessiaX32/CPU/Hazards" C:/Users/kevii/OneDrive/Escritorio/Arqui 2/CE4302-P2-2023-S2/TessiaX32/CPU/Hazards/HazardUnit.sv 
# -- Compiling module HazardUnit
# 
# Top level modules:
# 	HazardUnit
# End time: 12:36:38 on Nov 21,2023, Elapsed time: 0:00:00
# Errors: 0, Warnings: 0
# vlog -sv -work work +incdir+C:/Users/kevii/OneDrive/Escritorio/Arqui\ 2/CE4302-P2-2023-S2/TessiaX32/CPU/Memory {C:/Users/kevii/OneDrive/Escritorio/Arqui 2/CE4302-P2-2023-S2/TessiaX32/CPU/Memory/DataMemory.sv}
# Model Technology ModelSim - Intel FPGA Edition vlog 10.5b Compiler 2016.10 Oct  5 2016
# Start time: 12:36:38 on Nov 21,2023
# vlog -reportprogress 300 -sv -work work "+incdir+C:/Users/kevii/OneDrive/Escritorio/Arqui 2/CE4302-P2-2023-S2/TessiaX32/CPU/Memory" C:/Users/kevii/OneDrive/Escritorio/Arqui 2/CE4302-P2-2023-S2/TessiaX32/CPU/Memory/DataMemory.sv 
# -- Compiling module DataMemory
# 
# Top level modules:
# 	DataMemory
# End time: 12:36:38 on Nov 21,2023, Elapsed time: 0:00:00
# Errors: 0, Warnings: 0
# 
# vlog -sv -work work +incdir+C:/Users/kevii/OneDrive/Escritorio/Arqui\ 2/CE4302-P2-2023-S2/TessiaX32/Testbenches {C:/Users/kevii/OneDrive/Escritorio/Arqui 2/CE4302-P2-2023-S2/TessiaX32/Testbenches/TessiaX32_tb.sv}
# Model Technology ModelSim - Intel FPGA Edition vlog 10.5b Compiler 2016.10 Oct  5 2016
# Start time: 12:36:38 on Nov 21,2023
# vlog -reportprogress 300 -sv -work work "+incdir+C:/Users/kevii/OneDrive/Escritorio/Arqui 2/CE4302-P2-2023-S2/TessiaX32/Testbenches" C:/Users/kevii/OneDrive/Escritorio/Arqui 2/CE4302-P2-2023-S2/TessiaX32/Testbenches/TessiaX32_tb.sv 
# -- Compiling module TessiaX32_tb
# 
# Top level modules:
# 	TessiaX32_tb
# End time: 12:36:38 on Nov 21,2023, Elapsed time: 0:00:00
# Errors: 0, Warnings: 0
# 
# vsim -t 1ps -L altera_ver -L lpm_ver -L sgate_ver -L altera_mf_ver -L altera_lnsim_ver -L cycloneiv_hssi_ver -L cycloneiv_pcie_hip_ver -L cycloneiv_ver -L rtl_work -L work -voptargs="+acc"  TessiaX32_tb
# vsim -t 1ps -L altera_ver -L lpm_ver -L sgate_ver -L altera_mf_ver -L altera_lnsim_ver -L cycloneiv_hssi_ver -L cycloneiv_pcie_hip_ver -L cycloneiv_ver -L rtl_work -L work -voptargs=""+acc"" TessiaX32_tb 
# Start time: 12:36:38 on Nov 21,2023
# Loading sv_std.std
# Loading work.TessiaX32_tb
# Loading work.TessiaX32
# Loading work.InstructionMemory
# Loading work.Fetch
# Loading work.mux2to1
# Loading work.flopenrc
# Loading work.adder
# Loading work.ControlUnit
# Loading work.Decode
# Loading work.RegisterFile
# Loading work.ExtendImmediate
# Loading work.ConditionalUnit
# Loading work.ConditionCheck
# Loading work.mux3to1
# Loading work.HazardUnit
# Loading work.Execute
# Loading work.ALU
# Loading work.DataMemory
# Loading work.WriteBack
# 
# add wave *
# view structure
# .main_pane.structure.interior.cs.body.struct
# view signals
# .main_pane.objects.interior.cs.body.tree
# run -all
# Execute {Operation: xxxx, SrcA:          x, SrcB:          x, ALUResult:          0, ALUFlagsE0: 01xx ALUFlagsE: 0xxx, BranchTaken: 0}
# 
#  
# 
# Execute {Operation: xxxx, SrcA:          x, SrcB:          x, ALUResult:          0, ALUFlagsE0: 01xx ALUFlagsE: 0xxx, BranchTaken: 0}
# 
#  
# 
# Execute {Operation: 0001, SrcA:          4, SrcB:          4, ALUResult:          0, ALUFlagsE0: 0100 ALUFlagsE: 0xxx, BranchTaken: 0}
# 
#  
# 
# Execute {Operation: 0001, SrcA:          4, SrcB:          4, ALUResult:          0, ALUFlagsE0: 0100 ALUFlagsE: 0100, BranchTaken: 0}
# 
#  
# 
# Execute {Operation: 0001, SrcA:          4, SrcB:          4, ALUResult:          0, ALUFlagsE0: 0100 ALUFlagsE: 0100, BranchTaken: 0}
# 
#  
# 
# Execute {Operation: 0001, SrcA:          4, SrcB:          4, ALUResult:          0, ALUFlagsE0: 0100 ALUFlagsE: 0100, BranchTaken: 0}
# 
#  
# 
# Execute {Operation: 0001, SrcA:          4, SrcB:          4, ALUResult:          0, ALUFlagsE0: 0100 ALUFlagsE: 0100, BranchTaken: 0}
# 
#  
# 
# Execute {Operation: 0001, SrcA:          4, SrcB:          4, ALUResult:          0, ALUFlagsE0: 0100 ALUFlagsE: 0100, BranchTaken: 0}
# 
#  
# 
# Execute {Operation: 0001, SrcA:          4, SrcB:          4, ALUResult:          0, ALUFlagsE0: 0100 ALUFlagsE: 0100, BranchTaken: 0}
# 
#  
# 
# Execute {Operation: 0001, SrcA:          4, SrcB:          4, ALUResult:          0, ALUFlagsE0: 0100 ALUFlagsE: 0100, BranchTaken: 0}
# 
#  
# 
# Execute {Operation: 0001, SrcA:          4, SrcB:          4, ALUResult:          0, ALUFlagsE0: 0100 ALUFlagsE: 0100, BranchTaken: 0}
# 
#  
# 
# Decode {Reg to Write:  0, Value:          0}
# Execute {Operation: 0001, SrcA:          8, SrcB:          8, ALUResult:          0, ALUFlagsE0: 0100 ALUFlagsE: 0100, BranchTaken: 0}
# 
#  
# 
# Decode {Reg to Write:  0, Value:          0}
# Execute {Operation: 0000, SrcA:          0, SrcB:          2, ALUResult:          2, ALUFlagsE0: 0000 ALUFlagsE: 0100, BranchTaken: 0}
# 
#  
# 
# Decode {Reg to Write:  0, Value:          0}
# Execute {Operation: 0110, SrcA:          2, SrcB:         20, ALUResult:         20, ALUFlagsE0: 0000 ALUFlagsE: 0000, BranchTaken: 0}
# 
#  
# 
# Decode {Reg to Write:  0, Value:          2}
# Execute {Operation: 0001, SrcA:         20, SrcB:         20, ALUResult:          0, ALUFlagsE0: 0100 ALUFlagsE: 0000, BranchTaken: 0}
# 
#  
# 
# Decode {Reg to Write: 10, Value:         20}
# Execute {Operation: 0001, SrcA:         20, SrcB:          0, ALUResult:         20, ALUFlagsE0: 0000 ALUFlagsE: 0100, BranchTaken: 0}
# 
#  
# 
# Decode {Reg to Write:  1, Value:          0}
# Execute {Operation: 0000, SrcA:         28, SrcB:         20, ALUResult:         48, ALUFlagsE0: 0000 ALUFlagsE: 0000, BranchTaken: 0}
# 
#  
# 
# Execute {Operation: 0010, SrcA:          2, SrcB:          2, ALUResult:          4, ALUFlagsE0: 0000 ALUFlagsE: 0000, BranchTaken: 0}
# 
#  
# 
# Execute {Operation: 0010, SrcA:          2, SrcB:          2, ALUResult:          4, ALUFlagsE0: 0000 ALUFlagsE: 0000, BranchTaken: 0}
# 
#  
# 
# Execute {Operation: 0000, SrcA:          0, SrcB:          0, ALUResult:          0, ALUFlagsE0: 0100 ALUFlagsE: 0000, BranchTaken: 0}
# 
#  
# 
# Execute {Operation: 0010, SrcA:          0, SrcB:          2, ALUResult:          0, ALUFlagsE0: 0100 ALUFlagsE: 0000, BranchTaken: 0}
# 
#  
# 
# Decode {Reg to Write:  2, Value:          0}
# Execute {Operation: 0000, SrcA:          0, SrcB:          0, ALUResult:          0, ALUFlagsE0: 0100 ALUFlagsE: 0000, BranchTaken: 0}
# 
#  
# 
# Decode {Reg to Write:  3, Value:          0}
# Execute {Operation: 0000, SrcA:          0, SrcB:          0, ALUResult:          0, ALUFlagsE0: 0100 ALUFlagsE: 0000, BranchTaken: 0}
# 
#  
# 
# Execute {Operation: 0000, SrcA:          0, SrcB:          0, ALUResult:          0, ALUFlagsE0: 0100 ALUFlagsE: 0000, BranchTaken: 0}
# 
#  
# 
# Execute {Operation: 0000, SrcA:          0, SrcB:          1, ALUResult:          1, ALUFlagsE0: 0000 ALUFlagsE: 0000, BranchTaken: 0}
# 
#  
# 
# Execute {Operation: 0001, SrcA:         52, SrcB:         36, ALUResult:         16, ALUFlagsE0: 0000 ALUFlagsE: 0000, BranchTaken: 1}
# 
#  
# 
# Decode {Reg to Write:  1, Value:          1}
# Execute {Operation: 0000, SrcA:          0, SrcB:          0, ALUResult:          0, ALUFlagsE0: 0100 ALUFlagsE: 0000, BranchTaken: 0}
# 
#  
# 
# Execute {Operation: 0010, SrcA:          2, SrcB:          2, ALUResult:          4, ALUFlagsE0: 0000 ALUFlagsE: 0000, BranchTaken: 0}
# 
#  
# 
# Execute {Operation: 0010, SrcA:          2, SrcB:          2, ALUResult:          4, ALUFlagsE0: 0000 ALUFlagsE: 0000, BranchTaken: 0}
# 
#  
# 
# Execute {Operation: 0010, SrcA:          2, SrcB:          2, ALUResult:          4, ALUFlagsE0: 0000 ALUFlagsE: 0000, BranchTaken: 0}
# 
#  
# 
# Execute {Operation: 0001, SrcA:         20, SrcB:          1, ALUResult:         19, ALUFlagsE0: 0000 ALUFlagsE: 0000, BranchTaken: 0}
# 
#  
# 
# Execute {Operation: 0000, SrcA:         28, SrcB:         20, ALUResult:         48, ALUFlagsE0: 0000 ALUFlagsE: 0000, BranchTaken: 0}
# 
#  
# 
# Execute {Operation: 0010, SrcA:          2, SrcB:          2, ALUResult:          4, ALUFlagsE0: 0000 ALUFlagsE: 0000, BranchTaken: 0}
# 
#  
# 
# Execute {Operation: 0010, SrcA:          2, SrcB:          2, ALUResult:          4, ALUFlagsE0: 0000 ALUFlagsE: 0000, BranchTaken: 0}
# 
#  
# 
# Execute {Operation: 0000, SrcA:          1, SrcB:          0, ALUResult:          1, ALUFlagsE0: 0000 ALUFlagsE: 0000, BranchTaken: 0}
# 
#  
# 
# Execute {Operation: 0010, SrcA:          1, SrcB:          2, ALUResult:          2, ALUFlagsE0: 0000 ALUFlagsE: 0000, BranchTaken: 0}
# 
#  
# 
# Decode {Reg to Write:  2, Value:          1}
# Execute {Operation: 0000, SrcA:          1, SrcB:          0, ALUResult:          1, ALUFlagsE0: 0000 ALUFlagsE: 0000, BranchTaken: 0}
# 
#  
# 
# Decode {Reg to Write:  3, Value:          2}
# Execute {Operation: 0000, SrcA:          0, SrcB:          0, ALUResult:          0, ALUFlagsE0: 0100 ALUFlagsE: 0000, BranchTaken: 0}
# 
#  
# 
# Execute {Operation: 0000, SrcA:          1, SrcB:          0, ALUResult:          1, ALUFlagsE0: 0000 ALUFlagsE: 0000, BranchTaken: 0}
# 
#  
# 
# Execute {Operation: 0000, SrcA:          1, SrcB:          1, ALUResult:          2, ALUFlagsE0: 0000 ALUFlagsE: 0000, BranchTaken: 0}
# 
#  
# 
# Execute {Operation: 0001, SrcA:         52, SrcB:         36, ALUResult:         16, ALUFlagsE0: 0000 ALUFlagsE: 0000, BranchTaken: 1}
# 
#  
# 
# Decode {Reg to Write:  1, Value:          2}
# Execute {Operation: 0000, SrcA:          0, SrcB:          0, ALUResult:          0, ALUFlagsE0: 0100 ALUFlagsE: 0000, BranchTaken: 0}
# 
#  
# 
# Execute {Operation: 0010, SrcA:          2, SrcB:          2, ALUResult:          4, ALUFlagsE0: 0000 ALUFlagsE: 0000, BranchTaken: 0}
# 
#  
# 
# Execute {Operation: 0010, SrcA:          2, SrcB:          2, ALUResult:          4, ALUFlagsE0: 0000 ALUFlagsE: 0000, BranchTaken: 0}
# 
#  
# 
# Execute {Operation: 0010, SrcA:          2, SrcB:          2, ALUResult:          4, ALUFlagsE0: 0000 ALUFlagsE: 0000, BranchTaken: 0}
# 
#  
# 
# Execute {Operation: 0001, SrcA:         20, SrcB:          2, ALUResult:         18, ALUFlagsE0: 0000 ALUFlagsE: 0000, BranchTaken: 0}
# 
#  
# 
# Execute {Operation: 0000, SrcA:         28, SrcB:         20, ALUResult:         48, ALUFlagsE0: 0000 ALUFlagsE: 0000, BranchTaken: 0}
# 
#  
# 
# Execute {Operation: 0010, SrcA:          2, SrcB:          2, ALUResult:          4, ALUFlagsE0: 0000 ALUFlagsE: 0000, BranchTaken: 0}
# 
#  
# 
# Execute {Operation: 0010, SrcA:          2, SrcB:          2, ALUResult:          4, ALUFlagsE0: 0000 ALUFlagsE: 0000, BranchTaken: 0}
# 
#  
# 
# Execute {Operation: 0000, SrcA:          2, SrcB:          0, ALUResult:          2, ALUFlagsE0: 0000 ALUFlagsE: 0000, BranchTaken: 0}
# 
#  
# 
# Execute {Operation: 0010, SrcA:          2, SrcB:          2, ALUResult:          4, ALUFlagsE0: 0000 ALUFlagsE: 0000, BranchTaken: 0}
# 
#  
# 
# Decode {Reg to Write:  2, Value:          2}
# Execute {Operation: 0000, SrcA:          2, SrcB:          0, ALUResult:          2, ALUFlagsE0: 0000 ALUFlagsE: 0000, BranchTaken: 0}
# 
#  
# 
# Decode {Reg to Write:  3, Value:          4}
# Execute {Operation: 0000, SrcA:          0, SrcB:          0, ALUResult:          0, ALUFlagsE0: 0100 ALUFlagsE: 0000, BranchTaken: 0}
# 
#  
# 
# Execute {Operation: 0000, SrcA:          2, SrcB:          0, ALUResult:          2, ALUFlagsE0: 0000 ALUFlagsE: 0000, BranchTaken: 0}
# 
#  
# 
# Execute {Operation: 0000, SrcA:          2, SrcB:          1, ALUResult:          3, ALUFlagsE0: 0000 ALUFlagsE: 0000, BranchTaken: 0}
# 
#  
# 
# Execute {Operation: 0001, SrcA:         52, SrcB:         36, ALUResult:         16, ALUFlagsE0: 0000 ALUFlagsE: 0000, BranchTaken: 1}
# 
#  
# 
# Decode {Reg to Write:  1, Value:          3}
# Execute {Operation: 0000, SrcA:          0, SrcB:          0, ALUResult:          0, ALUFlagsE0: 0100 ALUFlagsE: 0000, BranchTaken: 0}
# 
#  
# 
# Execute {Operation: 0010, SrcA:          2, SrcB:          2, ALUResult:          4, ALUFlagsE0: 0000 ALUFlagsE: 0000, BranchTaken: 0}
# 
#  
# 
# Execute {Operation: 0010, SrcA:          2, SrcB:          2, ALUResult:          4, ALUFlagsE0: 0000 ALUFlagsE: 0000, BranchTaken: 0}
# 
#  
# 
# Execute {Operation: 0010, SrcA:          2, SrcB:          2, ALUResult:          4, ALUFlagsE0: 0000 ALUFlagsE: 0000, BranchTaken: 0}
# 
#  
# 
# Execute {Operation: 0001, SrcA:         20, SrcB:          3, ALUResult:         17, ALUFlagsE0: 0000 ALUFlagsE: 0000, BranchTaken: 0}
# 
#  
# 
